{
	"appId": "com.olivia.veenme",
	"appName": "Veenme",
	"webDir": "www",
	"bundledWebRuntime": false,
	"plugins": {
		"FirebaseAuthentication": {
			"skipNativeAuth": false,
			"providers": [
				"apple.com",
				"google.com",
				"facebook.com"
			]
		}
	}
}
